Week5_Tasks
…
a

## # A tibble: 377 x 5
##                    sna       
##                  <chr>  <int>  <int>      <int>     <dbl>
##  1             32     32          0 1.0000000
##  2 (2)     41     42          1 0.9761905
##  3             27     28          1 0.9642857
##  4                 28     30          2 0.9333333
##  5             31     34          3 0.9117647
##  6             31     34          3 0.9117647
##  7               34     38          4 0.8947368
##  8             34     38          4 0.8947368
##  9         25     28          3 0.8928571
## 10           32     36          4 0.8888889
## # ... with 367 more rows
…
