Week6_Task
…
## The following objects are masked from 'package:base':
## 
##     intersect, setdiff, setequal, union

TXTData <- TXTData %>%
  select(Chr, Freq) %>%
  group_by(Freq) %>%
  arrange(desc(Freq))

TXTData

## # A tibble: 1,361 x 2
## # Groups:   Freq [91]
##      Chr  Freq
##    <chr> <int>
##  1       979
##  2       757
##  3       611
##  4       581
##  5       533
##  6       343
##  7       267
##  8       219
##  9       219
## 10       206
## # ... with 1,351 more rows
…
